…
``` r
coalC <- data %>%
  select("state", "CoalC2010", "CoalC2011", "CoalC2012", "CoalC2013", "CoalC2014") %>%
  pivot_longer(c("CoalC2010", "CoalC2011", "CoalC2012", "CoalC2013", "CoalC2014"), names_to = "Year", values_to = "CoalConsumption")
coalC$Year <- gsub("CoalC", "", as.character(coalC$Year))
coalC
```

    ## # A tibble: 250 × 3
    ##    state   Year  CoalConsumption
    ##    <chr>   <chr>           <dbl>
    ##  1 Alabama 2010           718684
    ##  2 Alabama 2011           651032
    ##  3 Alabama 2012           547004
    ##  4 Alabama 2013           565051
    ##  5 Alabama 2014           575912
    ##  6 Alaska  2010            14548
    ##  7 Alaska  2011            15481
    ##  8 Alaska  2012            15521
    ##  9 Alaska  2013            14819
    ## 10 Alaska  2014            18225
    ## # … with 240 more rows
…
``` r
bioC <- data %>%
  select("state", "BiomassC2010", "BiomassC2011", "BiomassC2012", "BiomassC2013", "BiomassC2014") %>%
  pivot_longer(c("BiomassC2010", "BiomassC2011", "BiomassC2012", "BiomassC2013", "BiomassC2014"), names_to = "Year", values_to = "BiomassConsumption")
bioC$Year <- gsub("BiomassC", "", as.character(bioC$Year))
bioC
```

    ## # A tibble: 250 × 3
    ##    state   Year  BiomassConsumption
    ##    <chr>   <chr>              <dbl>
    ##  1 Alabama 2010              169088
    ##  2 Alabama 2011              179611
    ##  3 Alabama 2012              181878
    ##  4 Alabama 2013              194432
    ##  5 Alabama 2014              186649
    ##  6 Alaska  2010                4178
    ##  7 Alaska  2011                4247
    ##  8 Alaska  2012                4032
    ##  9 Alaska  2013                5168
    ## 10 Alaska  2014                5476
    ## # … with 240 more rows
…
``` r
elecC <- data %>%
  select("state", "ElecC2010", "ElecC2011", "ElecC2012", "ElecC2013", "ElecC2014") %>%
  pivot_longer(c("ElecC2010", "ElecC2011", "ElecC2012", "ElecC2013", "ElecC2014"), names_to = "Year", values_to = "ElecConsumption")
elecC$Year <- gsub("ElecC", "", as.character(elecC$Year))
elecC
```

    ## # A tibble: 250 × 3
    ##    state   Year  ElecConsumption
    ##    <chr>   <chr>           <dbl>
    ##  1 Alabama 2010           310023
    ##  2 Alabama 2011           303652
    ##  3 Alabama 2012           294055
    ##  4 Alabama 2013           299751
    ##  5 Alabama 2014           308765
    ##  6 Alaska  2010            21315
    ##  7 Alaska  2011            21562
    ##  8 Alaska  2012            21893
    ##  9 Alaska  2013            21387
    ## 10 Alaska  2014            21034
    ## # … with 240 more rows
…
``` r
fossC <- data %>%
  select("state", "FossFuelC2010", "FossFuelC2011", "FossFuelC2012", "FossFuelC2013", "FossFuelC2014") %>%
  pivot_longer(c("FossFuelC2010", "FossFuelC2011", "FossFuelC2012", "FossFuelC2013", "FossFuelC2014"), names_to = "Year", values_to = "FossFConsumption")
fossC$Year <- gsub("FossFuelC", "", as.character(fossC$Year))
fossC
```

    ## # A tibble: 250 × 3
    ##    state   Year  FossFConsumption
    ##    <chr>   <chr>            <dbl>
    ##  1 Alabama 2010           1785688
    ##  2 Alabama 2011           1783839
    ##  3 Alabama 2012           1740315
    ##  4 Alabama 2013           1689491
    ##  5 Alabama 2014           1724891
    ##  6 Alaska  2010            634777
    ##  7 Alaska  2011            635981
    ##  8 Alaska  2012            629768
    ##  9 Alaska  2013            600660
    ## 10 Alaska  2014            581369
    ## # … with 240 more rows
…
``` r
geoC <- data %>%
  select("state", "GeoC2010", "GeoC2011", "GeoC2012", "GeoC2013", "GeoC2014") %>%
  pivot_longer(c("GeoC2010", "GeoC2011", "GeoC2012", "GeoC2013", "GeoC2014"), names_to = "Year", values_to = "GeoConsumption")
geoC$Year <- gsub("GeoC", "", as.character(geoC$Year))
geoC
```

    ## # A tibble: 250 × 3
    ##    state   Year  GeoConsumption
    ##    <chr>   <chr>          <dbl>
    ##  1 Alabama 2010             138
    ##  2 Alabama 2011             135
    ##  3 Alabama 2012             141
    ##  4 Alabama 2013             141
    ##  5 Alabama 2014             141
    ##  6 Alaska  2010             153
    ##  7 Alaska  2011             214
    ##  8 Alaska  2012             186
    ##  9 Alaska  2013             186
    ## 10 Alaska  2014             186
    ## # … with 240 more rows
…
``` r
hydroC <- data %>%
  select("state", "HydroC2010", "HydroC2011", "HydroC2012", "HydroC2013", "HydroC2014") %>%
  pivot_longer(c("HydroC2010", "HydroC2011", "HydroC2012", "HydroC2013", "HydroC2014"), names_to = "Year", values_to = "HydroConsumption")
hydroC$Year <- gsub("HydroC", "", as.character(hydroC$Year))
hydroC
```

    ## # A tibble: 250 × 3
    ##    state   Year  HydroConsumption
    ##    <chr>   <chr>            <dbl>
    ##  1 Alabama 2010             84919
    ##  2 Alabama 2011             86313
    ##  3 Alabama 2012             70754
    ##  4 Alabama 2013            123071
    ##  5 Alabama 2014             90030
    ##  6 Alaska  2010             13982
    ##  7 Alaska  2011             13066
    ##  8 Alaska  2012             14988
    ##  9 Alaska  2013             13696
    ## 10 Alaska  2014             14633
    ## # … with 240 more rows
…
``` r
natC <- data %>%
  select("state", "NatGasC2010", "NatGasC2011", "NatGasC2012", "NatGasC2013", "NatGasC2014") %>%
  pivot_longer(c("NatGasC2010", "NatGasC2011", "NatGasC2012", "NatGasC2013", "NatGasC2014"), names_to = "Year", values_to = "NatGasConsumption")
natC$Year <- gsub("NatGasC", "", as.character(natC$Year))
natC
```

    ## # A tibble: 250 × 3
    ##    state   Year  NatGasConsumption
    ##    <chr>   <chr>             <dbl>
    ##  1 Alabama 2010             544405
    ##  2 Alabama 2011             609288
    ##  3 Alabama 2012             677380
    ##  4 Alabama 2013             625869
    ##  5 Alabama 2014             651532
    ##  6 Alaska  2010             334978
    ##  7 Alaska  2011             339819
    ##  8 Alaska  2012             347228
    ##  9 Alaska  2013             332963
    ## 10 Alaska  2014             329585
    ## # … with 240 more rows
…
``` r
lpgC <- data %>%
  select("state", "LPGC2010", "LPGC2011", "LPGC2012", "LPGC2013", "LPGC2014") %>%
  pivot_longer(c("LPGC2010", "LPGC2011", "LPGC2012", "LPGC2013", "LPGC2014"), names_to = "Year", values_to = "LPGConsumption")
lpgC$Year <- gsub("LPGC", "", as.character(lpgC$Year))
lpgC
```

    ## # A tibble: 250 × 3
    ##    state   Year  LPGConsumption
    ##    <chr>   <chr>          <dbl>
    ##  1 Alabama 2010           13088
    ##  2 Alabama 2011           10343
    ##  3 Alabama 2012            8628
    ##  4 Alabama 2013            9094
    ##  5 Alabama 2014            8460
    ##  6 Alaska  2010            1353
    ##  7 Alaska  2011            1247
    ##  8 Alaska  2012            1314
    ##  9 Alaska  2013            1272
    ## 10 Alaska  2014            1190
    ## # … with 240 more rows
…
