…
\#GDP Change with energy GROUP Change

``` r
#Generate an 2011 Consumption data table including all related columns
Consumption2011<-data%>%
  select("TotalC2010_2011","TotalP2010_2011","TotalE2010_2011","TotalPrice2010_2011","GDP2010_2011")
Consumption2011
```

    ## # A tibble: 52 × 5
    ##    TotalC2010_2011 TotalP2010_2011 TotalE2010_2011 TotalPrice2010_… GDP2010_2011
    ##              <dbl>           <dbl>           <dbl>            <dbl>        <dbl>
    ##  1          -26315          -19505           2817.             2.28        5702.
    ##  2             416          -96227           1576.             4.78        5098.
    ##  3           41413           37008           3256.             3.37        8288.
    ##  4            1912          143481           1909.             2.77        4450.
    ##  5           16486          102584          18008.             3.38       70413.
    ##  6          -43102          188638           2381.             3.88        8648 
    ##  7          -25840           -7396           1253.             2.51        1914.
    ##  8           22356             401            404.             1.82        2090.
    ##  9         -140962           -9294           7520.             3.36        5483.
    ## 10         -117307          -12313           5084.             3.24       10918.
    ## # … with 42 more rows

``` r
#Generate an 2012 Consumption data table including all related columns
Consumption2012<-data%>%
  select("TotalC2011_2012","TotalP2011_2012","TotalE2011_2012","TotalPrice2011_2012","GDP2011_2012")
Consumption2012
```

    ## # A tibble: 52 × 5
    ##    TotalC2011_2012 TotalP2011_2012 TotalE2011_2012 TotalPrice2011_… GDP2011_2012
    ##              <dbl>           <dbl>           <dbl>            <dbl>        <dbl>
    ##  1          -25491           33262          -255.            -0.140        5360.
    ##  2           -4296          -78878          -166.             0.180        2295.
    ##  3          -29105          -19917           244.             0.790       10510.
    ##  4          -54902           81588          -423.             0.310        2163.
    ##  5         -213052         -299926           834.             0.620       90254.
    ##  6          -29664          171288            25.9            0.530       10850.
    ##  7          -14111            9281          -372.             0.530        6052.
    ##  8            1160            -446            52.7           -0.490        1011 
    ##  9         -111808          -58719          -965.             0.150       29401.
    ## 10         -215346            5755         -2478.             0.240       16061.
    ## # … with 42 more rows

``` r
#Generate an 2013 Consumption data table including all related columns
Consumption2013<-data%>%
  select("TotalC2012_2013","TotalP2012_2013","TotalE2012_2013","TotalPrice2012_2013","GDP2012_2013")
Consumption2013
```

    ## # A tibble: 52 × 5
    ##    TotalC2012_2013 TotalP2012_2013 TotalE2012_2013 TotalPrice2012_… GDP2012_2013
    ##              <dbl>           <dbl>           <dbl>            <dbl>        <dbl>
    ##  1           39649           30277           -65.8           -0.940        4322 
    ##  2          -28234          -49243          -603.            -0.490       -1723.
    ##  3           18544           -3045           -31.3           -0.360        4942.
    ##  4           28796          -40704           347.            -0.440        5110.
    ##  5          101178           55561          1119.            -0.120       93629.
    ##  6           30063          -83192           375.            -0.670       11162.
    ##  7           29882            2045           238.            -0.970        4095.
    ##  8             -12             288          -184.            -0.550         650.
    ##  9           46503          100382          -272.            -0.430       32698 
    ## 10           15291           25844           101.            -0.360       15956.
    ## # … with 42 more rows

``` r
#Generate an 2014 Consumption data table including all related columns
Consumption2014<-data%>%
 select("TotalC2013_2014","TotalP2013_2014","TotalE2013_2014","TotalPrice2013_2014","GDP2013_2014")
Consumption2014
```

    ## # A tibble: 52 × 5
    ##    TotalC2013_2014 TotalP2013_2014 TotalE2013_2014 TotalPrice2013_… GDP2013_2014
    ##              <dbl>           <dbl>           <dbl>            <dbl>        <dbl>
    ##  1           38856         -109922           19.5            -0.380        5929.
    ##  2          -17988          -38730         -391.             -0.170       -1824 
    ##  3            8207           40056         -232.             -0.110       10486.
    ##  4           17971           22251         -217.             -0.670        4413.
    ##  5          -45159           23070          669.              0.460      109764 
    ##  6            6333          203441          324.              0.110       16558.
    ##  7           -4882           -9847          119.              0.150        8347.
    ##  8             297             371           -8.10           -0.510        4061 
    ##  9           45274           11168          305.             -0.220       38235 
    ## 10           68208           16873         -211.             -0.420       20946 
    ## # … with 42 more rows
…
# Consumption

``` r
#Generate an 2011 Consumption data table including all related columns
Consumption2011<-data%>%
  select("TotalC2010_2011","BiomassC2010_2011","CoalC2010_2011","ElecC2010_2011","FossFuelC2010_2011","GeoC2010_2011","HydroC2010_2011","NatGasC2010_2011","LPGC2010_2011","GDP2010_2011")
Consumption2011
```

    ## # A tibble: 52 × 10
    ##    TotalC2010_2011 BiomassC2010_2011 CoalC2010_2011 ElecC2010_2011
    ##              <dbl>             <dbl>          <dbl>          <dbl>
    ##  1          -26315             10523         -67652          -6371
    ##  2             416                69            933            247
    ##  3           41413              -724           2000           7202
    ##  4            1912              2295          12430           -909
    ##  5           16486              2457            292          11638
    ##  6          -43102              2673         -13752           1845
    ##  7          -25840             -1758         -22630          -1818
    ##  8           22356              -120         -12372           -418
    ##  9         -140962             -1232         -84686         -20878
    ## 10         -117307              5841        -133150         -14673
    ## # … with 42 more rows, and 6 more variables: FossFuelC2010_2011 <dbl>,
    ## #   GeoC2010_2011 <dbl>, HydroC2010_2011 <dbl>, NatGasC2010_2011 <dbl>,
    ## #   LPGC2010_2011 <dbl>, GDP2010_2011 <dbl>

``` r
#Generate an 2012 Consumption data table including all related columns
Consumption2012<-data%>%
  select("TotalC2011_2012","BiomassC2011_2012","CoalC2011_2012","ElecC2011_2012","FossFuelC2011_2012","GeoC2011_2012","HydroC2011_2012","NatGasC2011_2012","LPGC2011_2012","GDP2011_2012")
Consumption2012
```

    ## # A tibble: 52 × 10
    ##    TotalC2011_2012 BiomassC2011_2012 CoalC2011_2012 ElecC2011_2012
    ##              <dbl>             <dbl>          <dbl>          <dbl>
    ##  1          -25491              2267        -104028          -9597
    ##  2           -4296              -215             40            331
    ##  3          -29105             -1298         -39339            408
    ##  4          -54902              -912          -9387          -3645
    ##  5         -213052             -1618         -11432          -8201
    ##  6          -29664              -203           1214            774
    ##  7          -14111             -1158           3209          -1251
    ##  8            1160              -809           -497            123
    ##  9         -111808              -911         -69746         -15068
    ## 10         -215346             -2858        -199210         -18398
    ## # … with 42 more rows, and 6 more variables: FossFuelC2011_2012 <dbl>,
    ## #   GeoC2011_2012 <dbl>, HydroC2011_2012 <dbl>, NatGasC2011_2012 <dbl>,
    ## #   LPGC2011_2012 <dbl>, GDP2011_2012 <dbl>

``` r
#Generate an 2013 Consumption data table including all related columns
Consumption2013<-data%>%
  select("TotalC2012_2013","BiomassC2012_2013","CoalC2012_2013","ElecC2012_2013","FossFuelC2012_2013","GeoC2012_2013","HydroC2012_2013","NatGasC2012_2013","LPGC2012_2013","GDP2012_2013")
Consumption2013
```

    ## # A tibble: 52 × 10
    ##    TotalC2012_2013 BiomassC2012_2013 CoalC2012_2013 ElecC2012_2013
    ##              <dbl>             <dbl>          <dbl>          <dbl>
    ##  1           39649             12554          18047           5696
    ##  2          -28234              1136           -702           -506
    ##  3           18544              -775          34295           2043
    ##  4           28796              -892          30367           -602
    ##  5          101178             13449          -5681           6122
    ##  6           30063              4702          -6553           -831
    ##  7           29882              1353          -1611           1133
    ##  8             -12                 5            870           -585
    ##  9           46503              9315          22171           4248
    ## 10           15291             25784          -9362          -1643
    ## # … with 42 more rows, and 6 more variables: FossFuelC2012_2013 <dbl>,
    ## #   GeoC2012_2013 <dbl>, HydroC2012_2013 <dbl>, NatGasC2012_2013 <dbl>,
    ## #   LPGC2012_2013 <dbl>, GDP2012_2013 <dbl>

``` r
#Generate an 2014 Consumption data table including all related columns
Consumption2014<-data%>%
 select("TotalC2013_2014","BiomassC2013_2014","CoalC2013_2014","ElecC2013_2014","FossFuelC2013_2014","GeoC2013_2014","HydroC2013_2014","NatGasC2013_2014","LPGC2013_2014","GDP2013_2014")
Consumption2014
```

    ## # A tibble: 52 × 10
    ##    TotalC2013_2014 BiomassC2013_2014 CoalC2013_2014 ElecC2013_2014
    ##              <dbl>             <dbl>          <dbl>          <dbl>
    ##  1           38856             -7783          10861           9014
    ##  2          -17988               308           3406           -353
    ##  3            8207              4989          -7016           2169
    ##  4           17971               607          12115           1355
    ##  5          -45159              4061           1335           4273
    ##  6            6333               691         -13006           -154
    ##  7           -4882              1858           1418          -1604
    ##  8             297               272          -8016            -32
    ##  9           45274             -3918          52727          14190
    ## 10           68208             19476          56473          18058
    ## # … with 42 more rows, and 6 more variables: FossFuelC2013_2014 <dbl>,
    ## #   GeoC2013_2014 <dbl>, HydroC2013_2014 <dbl>, NatGasC2013_2014 <dbl>,
    ## #   LPGC2013_2014 <dbl>, GDP2013_2014 <dbl>
…
# Production

``` r
#Generate an 2011 Production data table including all related columns
Production2011<-data%>%
  select("TotalP2010_2011","CoalP2010_2011","GeoP2010_2011","HydroP2010_2011","GDP2010_2011")
Production2011
```

    ## # A tibble: 52 × 5
    ##    TotalP2010_2011 CoalP2010_2011 GeoP2010_2011 HydroP2010_2011 GDP2010_2011
    ##              <dbl>          <dbl>         <dbl>           <dbl>        <dbl>
    ##  1          -19505         -24423             0             180        5702.
    ##  2          -96227            -32             0             -88        5098.
    ##  3           37008           6911             0            2552        8288.
    ##  4          143481           2267             0            -701        4450.
    ##  5          102584              0           -48            9126       70413.
    ##  6          188638          35022             0             505        8648 
    ##  7           -7396              0             0             176        1914.
    ##  8             401              0             0               0        2090.
    ##  9           -9294              0             0               5        5483.
    ## 10          -12313              0             0            -617       10918.
    ## # … with 42 more rows

``` r
#Generate an 2012 Production data table including all related columns
Production2012<-data%>%
  select("TotalP2011_2012","CoalP2011_2012","GeoP2011_2012","HydroP2011_2012","GDP2011_2012")
Production2012
```

    ## # A tibble: 52 × 5
    ##    TotalP2011_2012 CoalP2011_2012 GeoP2011_2012 HydroP2011_2012 GDP2011_2012
    ##              <dbl>          <dbl>         <dbl>           <dbl>        <dbl>
    ##  1           33262          19413             0           -1449        5360.
    ##  2          -78878          -2192             0             230        2295.
    ##  3          -19917         -13467             0           -2457       10510.
    ##  4           81588           -908             0            -760        2163.
    ##  5         -299926              0           -33          -15720       90254.
    ##  6          171288          42798             0            -586       10850.
    ##  7            9281              0             0            -255        6052.
    ##  8            -446              0             0               0        1011 
    ##  9          -58719              0             0             -31       29401.
    ## 10            5755              0             0            -469       16061.
    ## # … with 42 more rows

``` r
#Generate an 2013 Production data table including all related columns
Production2013<-data%>%
  select("TotalP2012_2013","CoalP2012_2013","GeoP2012_2013","HydroP2012_2013","GDP2012_2013")
Production2013
```

    ## # A tibble: 52 × 5
    ##    TotalP2012_2013 CoalP2012_2013 GeoP2012_2013 HydroP2012_2013 GDP2012_2013
    ##              <dbl>          <dbl>         <dbl>           <dbl>        <dbl>
    ##  1           30277         -18922             0            5464        4322 
    ##  2          -49243          -6415             0            -140       -1723.
    ##  3           -3045           2317             0            -802        4942.
    ##  4          -40704           -644             0             457        5110.
    ##  5           55561              0          -212           -3082       93629.
    ##  6          -83192        -100549             0            -284       11162.
    ##  7            2045              0             0              90        4095.
    ##  8             288              0             0               0         650.
    ##  9          100382              0             0             103       32698 
    ## 10           25844              0             0            1478       15956.
    ## # … with 42 more rows

``` r
#Generate an 2014 Production data table including all related columns
Production2014<-data%>%
  select("TotalP2013_2014","CoalP2013_2014","GeoP2013_2014","HydroP2013_2014","GDP2013_2014")
Production2014
```

    ## # A tibble: 52 × 5
    ##    TotalP2013_2014 CoalP2013_2014 GeoP2013_2014 HydroP2013_2014 GDP2013_2014
    ##              <dbl>          <dbl>         <dbl>           <dbl>        <dbl>
    ##  1         -109922         -54796             0           -3432        5929.
    ##  2          -38730          -1973             0             104       -1824 
    ##  3           40056           9646             0             203       10486.
    ##  4           22251            431             0             -15        4413.
    ##  5           23070              0          -205           -7224      109764 
    ##  6          203441           -854             0             557       16558.
    ##  7           -9847              0             0              32        8347.
    ##  8             371              0             0               0        4061 
    ##  9           11168              0             0             -43       38235 
    ## 10           16873              0             0            -650       20946 
    ## # … with 42 more rows
…
# Expenditures

``` r
#Generate an 2011 Expenditures data table including all related columns
Expenditures2011<-data%>%
  select("TotalE2010_2011","CoalE2010_2011","ElecE2010_2011","NatGasE2010_2011","LPGE2010_2011","GDP2010_2011")
Expenditures2011
```

    ## # A tibble: 52 × 6
    ##    TotalE2010_2011 CoalE2010_2011 ElecE2010_2011 NatGasE2010_2011 LPGE2010_2011
    ##              <dbl>          <dbl>          <dbl>            <dbl>         <dbl>
    ##  1           2817.         -126.            13.1            -99.6        -42.9 
    ##  2           1576.            9.7           92.2             65.9          1.30
    ##  3           3256.           88.1          220.            -114.          60   
    ##  4           1909.           81.6           53.3            111.          16   
    ##  5          18008.           11.7          537.            -560.         251.  
    ##  6           2381.           27.1          177             -240.          46.8 
    ##  7           1253.          -76.7         -402.              45.2         52.9 
    ##  8            404.          -40.3          -80.3            184.          -2.40
    ##  9           7520.         -259.          -580.            -267.          -1   
    ## 10           5084.         -593.           699             -381.         -58.1 
    ## # … with 42 more rows, and 1 more variable: GDP2010_2011 <dbl>

``` r
#Generate an 2012 Expenditures data table including all related columns
Expenditures2012<-data%>%
  select("TotalE2011_2012","CoalE2011_2012","ElecE2011_2012","NatGasE2011_2012","LPGE2011_2012","GDP2011_2012")
Expenditures2012
```

    ## # A tibble: 52 × 6
    ##    TotalE2011_2012 CoalE2011_2012 ElecE2011_2012 NatGasE2011_2012 LPGE2011_2012
    ##              <dbl>          <dbl>          <dbl>            <dbl>         <dbl>
    ##  1          -255.         -201.          -180.             -527.        -61.8  
    ##  2          -166.            3.4           30.4             -31.2        -0.900
    ##  3           244.          -37.3           82.4            -282.        -91.5  
    ##  4          -423.           81.1            9.80           -406.        -49.3  
    ##  5           834.          -39.5          933.            -1344.       -428.   
    ##  6            25.9          52.4           24.4            -270.        -79.9  
    ##  7          -372.           10.9         -297              -158.        -41.8  
    ##  8            52.7          -2.70         -42.8              39.4       -13.6  
    ##  9          -965.         -262.          -852.             -718.       -139.   
    ## 10         -2478.         -870.          -834.             -335.         23.9  
    ## # … with 42 more rows, and 1 more variable: GDP2011_2012 <dbl>
…
